<?xml version="1.0" encoding="UTF-8" standalone="no"?>
<!-- Created with Inkscape (http://www.inkscape.org/) -->

<?xml-stylesheet type="text/css" href="../styles/clavier.css"?><svg
   xmlns:dc="http://purl.org/dc/elements/1.1/"
   xmlns:cc="http://creativecommons.org/ns#"
   xmlns:rdf="http://www.w3.org/1999/02/22-rdf-syntax-ns#"
   xmlns:svg="http://www.w3.org/2000/svg"
   xmlns="http://www.w3.org/2000/svg"
   xmlns:sodipodi="http://sodipodi.sourceforge.net/DTD/sodipodi-0.dtd"
   xmlns:inkscape="http://www.inkscape.org/namespaces/inkscape"
   version="1.1"
   id="svg2"
   width="1122.5601"
   height="793.59998"
   viewBox="0 0 1122.5601 793.59998"
   sodipodi:docname="alem-en.svg"
   inkscape:version="0.92.3 (2405546, 2018-03-11)">
  <metadata
     id="metadata8">
    <rdf:RDF>
      <cc:Work
         rdf:about="">
        <dc:format>image/svg+xml</dc:format>
        <dc:type
           rdf:resource="http://purl.org/dc/dcmitype/StillImage" />
        <dc:title></dc:title>
      </cc:Work>
    </rdf:RDF>
  </metadata>
  <defs
     id="defs6" />
      <linearGradient id="gradient_ei_maj" x1="0" x2="0" y1="0" y2="1">
        <stop offset="55%" class="phon_e"/>
        <stop offset="80%" class="phon_i_maj"/>
    </linearGradient>
    <linearGradient id="gradient_i_majarobase" x1="0" x2="0" y1="0" y2="1">
        <stop offset="55%" class="phon_i_maj"/>
        <stop offset="80%" class="phon_arobase"/>
    </linearGradient>
    <linearGradient id="gradient_earobase" x1="0" x2="0" y1="0" y2="1">
        <stop offset="55%" class="phon_e"/>
        <stop offset="80%" class="phon_arobase"/>
    </linearGradient>
    <linearGradient id="gradient_au_maj" x1="0" x2="0" y1="0" y2="1">
        <stop offset="55%" class="phon_a"/>
        <stop offset="80%" class="phon_u_maj"/>
    </linearGradient>
    <linearGradient id="gradient_arobaseu_maj" x1="0" x2="0" y1="0" y2="1">
        <stop offset="55%" class="phon_arobase"/>
        <stop offset="80%" class="phon_u_maj"/>
    </linearGradient>
    <linearGradient id="gradient_u_majarobase" x1="0" x2="0" y1="0" y2="1">
        <stop offset="55%" class="phon_u_maj"/>
        <stop offset="80%" class="phon_arobase"/>
    </linearGradient>
    <linearGradient id="gradient_o_maji_maj" x1="0" x2="0" y1="0" y2="1">
        <stop offset="55%" class="phon_o_maj"/>
        <stop offset="80%" class="phon_i_maj"/>
    </linearGradient>
    <linearGradient id="gradient_ai_maj" x1="0" x2="0" y1="0" y2="1">
        <stop offset="55%" class="phon_a"/>
        <stop offset="80%" class="phon_i_maj"/>
    </linearGradient>

    <linearGradient id="gradient_ts_maj" x1="0" x2="0" y1="0" y2="1">
        <stop offset="50%" class="phon_t"/>
        <stop offset="51%" class="phon_s_maj"/>
    </linearGradient>
    <linearGradient id="gradient_dz_maj" x1="0" x2="0" y1="0" y2="1">
        <stop offset="50%" class="phon_d"/>
        <stop offset="51%" class="phon_z_maj"/>
    </linearGradient>
  <sodipodi:namedview
     pagecolor="#ffffff"
     bordercolor="#666666"
     borderopacity="1"
     objecttolerance="10"
     gridtolerance="10"
     guidetolerance="10"
     inkscape:pageopacity="0"
     inkscape:pageshadow="2"
     inkscape:window-width="1366"
     inkscape:window-height="704"
     id="namedview4"
     showgrid="false"
     inkscape:zoom="0.42055747"
     inkscape:cx="770.21428"
     inkscape:cy="245.58868"
     inkscape:window-x="0"
     inkscape:window-y="27"
     inkscape:window-maximized="1"
     inkscape:current-layer="svg2" />
   <rect
     style="fill:#000000;fill-opacity:0"
     id="bg"
     width="1122.5601"
     height="793.59998"
     x="0"
     y="0"
     onclick="top.initGraph()" />
  <rect
     style="fill:#ff0000;fill-opacity:0;stroke-width:1"
     id="rect_i_long"
	 onclick="top.recupPhon(this.id)"
	 class="svgPhonClick"
     width="104.0339"
     height="33.416946"
     x="22.067797"
     y="3.36271" />
  <rect
     style="fill:#ff0000;fill-opacity:0;stroke-width:1"
     id="rect_i_maj"
	 onclick="top.recupPhon(this.id)"
	 class="svgPhonClick"
     width="104.1772"
     height="39.828087"
     x="76.981155"
     y="40.878838" />
  <rect
     style="fill:#ff0000;fill-opacity:0;stroke-width:1"
     id="rect_e"
	 onclick="top.recupPhon(this.id)"
	 class="svgPhonClick"
     width="104.32581"
     height="46.961475"
     x="61.228256"
     y="86.205574" />
  <rect
     style="fill:#ff0000;fill-opacity:0;stroke-width:1"
     id="rect_3_long"
	 onclick="top.recupPhon(this.id)"
	 class="svgPhonClick"
     width="104.32581"
     height="61.079643"
     x="262.15204"
     y="139.40877" />
  <rect
     style="fill:#ff0000;fill-opacity:0;stroke-width:1"
     id="rect_v_maj"
	 onclick="top.recupPhon(this.id)"
	 class="svgPhonClick"
     width="104.1772"
     height="74.45475"
     x="278.49939"
     y="206.28429" />
  <rect
     style="fill:#ff0000;fill-opacity:0;stroke-width:1"
     id="rect_a_maj_long"
	 onclick="top.recupPhon(this.id)"
	 class="svgPhonClick"
     width="104.24406"
     height="75.03051"
     x="413.61356"
     y="256.19659"
     ry="37.515255" />
  <rect
     style="fill:#ff0000;fill-opacity:0;stroke-width:1"
     id="rect_q_maj"
	 onclick="top.recupPhon(this.id)"
	 class="svgPhonClick"
     width="89.742371"
     height="74.820335"
     x="508.39999"
     y="221.51863"
     ry="37.410168" />
  <rect
     style="fill:#ff0000;fill-opacity:0;stroke-width:1"
     id="rect_o_maj_long"
	 onclick="top.recupPhon(this.id)"
	 class="svgPhonClick"
     width="103.40339"
     height="60.318642"
     x="483.59998"
     y="138.50169" />
  <rect
     style="fill:#ff0000;fill-opacity:0;stroke-width:1"
     id="rect_u_maj"
	 onclick="top.recupPhon(this.id)"
	 class="svgPhonClick"
     width="104.32581"
     height="39.085026"
     x="439.44647"
     y="41.027447" />
  <rect
     style="fill:#ff0000;fill-opacity:0;stroke-width:1"
     id="rect_u_long"
	 onclick="top.recupPhon(this.id)"
	 class="svgPhonClick"
     width="71.928337"
     height="32.546085"
     x="498.89139"
     y="4.4688301" />
  <rect
     style="fill:#ff0000;fill-opacity:0;stroke-width:1"
     id="rect_i_majarobase"
	 onclick="top.recupPhon(this.id)"
	 class="svgPhonClick"
     width="103.87994"
     height="38.341961"
     x="678.71222"
     y="41.919121" />
  <rect
     style="fill:#ff0000;fill-opacity:0;stroke-width:1"
     id="rect_u_majarobase"
	 onclick="top.recupPhon(this.id)"
	 class="svgPhonClick"
     width="104.32581"
     height="39.233639"
     x="933.28503"
     y="53.808102"
     ry="0" />
  <rect
     style="fill:#ff0000;fill-opacity:0;stroke-width:1"
     id="rect_arobaseu_maj"
	 onclick="top.recupPhon(this.id)"
	 class="svgPhonClick"
     width="104.02859"
     height="53.203194"
     x="850.508"
     y="126.18228" />
  <rect
     style="fill:#ff0000;fill-opacity:0;stroke-width:1"
     id="rect_o_maji_maj"
	 onclick="top.recupPhon(this.id)"
	 class="svgPhonClick"
     width="104.32581"
     height="61.822704"
     x="1015.0218"
     y="138.51709" />
  <rect
     style="fill:#ff0000;fill-opacity:0;stroke-width:1"
     id="rect_au_maj"
	 onclick="top.recupPhon(this.id)"
	 class="svgPhonClick"
     width="101.94801"
     height="75.049194"
     x="912.47931"
     y="254.58328" />
  <rect
     y="254.58328"
     x="805.7132"
     height="75.049194"
     width="101.94801"
     id="rect_ai_maj"
	 onclick="top.recupPhon(this.id)"
	 class="svgPhonClick"
     style="fill:#ff0000;fill-opacity:0;stroke-width:1" />
  <rect
     style="fill:#ff0000;fill-opacity:0;stroke-width:1"
     id="rect_ei_maj"
	 onclick="top.recupPhon(this.id)"
	 class="svgPhonClick"
     width="104.24406"
     height="44.976269"
     x="654.67792"
     y="136.39999" />
  <rect
     style="fill:#ff0000;fill-opacity:0;stroke-width:1"
     id="rect_earobase"
	 onclick="top.recupPhon(this.id)"
	 class="svgPhonClick"
     width="104.24406"
     height="43.715252"
     x="685.78302"
     y="200.08134" />
  <rect
     style="fill:#ff0000;fill-opacity:0;stroke-width:1"
     id="rect_r_slash"
	 onclick="top.recupPhon(this.id)"
	 class="svgPhonClick"
     width="84.698303"
     height="56.745762"
     x="700.70508"
     y="385.66101" />
  <rect
     style="fill:#ff0000;fill-opacity:0;stroke-width:1"
     id="rect_w"
	 onclick="top.recupPhon(this.id)"
	 class="svgPhonClick"
     width="85.328812"
     height="55.905083"
     x="881.87115"
     y="366.53558" />
  <rect
     style="fill:#ff0000;fill-opacity:0;stroke-width:1"
     id="rect_cbrack"
	 onclick="top.recupPhon(this.id)"
	 class="svgPhonClick"
     width="104.0339"
     height="67.044067"
     x="134.08813"
     y="221.72881" />
  <rect
     style="fill:#ff0000;fill-opacity:0;stroke-width:1"
     id="rect_j"
	 onclick="top.recupPhon(this.id)"
	 class="svgPhonClick"
     width="85.303444"
     height="56.249744"
     x="78.615891"
     y="366.63693" />
  <rect
     y="467.46448"
     x="31.022812"
     height="56.249744"
     width="85.303444"
     id="rect_p"
	 onclick="top.recupPhon(this.id)"
	 class="svgPhonClick"
     style="fill:#ff0000;fill-opacity:0;stroke-width:1" />
  <rect
     y="595.51636"
     x="30.911352"
     height="56.249744"
     width="85.303444"
     id="rect_m"
	 onclick="top.recupPhon(this.id)"
	 class="svgPhonClick"
     style="fill:#ff0000;fill-opacity:0;stroke-width:1" />
  <rect
     style="fill:#ff0000;fill-opacity:0;stroke-width:1"
     id="rect_f"
	 onclick="top.recupPhon(this.id)"
	 class="svgPhonClick"
     width="85.303444"
     height="56.249744"
     x="152.58765"
     y="467.46448" />
  <rect
     style="fill:#ff0000;fill-opacity:0;stroke-width:1"
     id="rect_t_maj"
	 onclick="top.recupPhon(this.id)"
	 class="svgPhonClick"
     width="85.303444"
     height="56.249744"
     x="274.15244"
     y="467.46448" />
  <rect
     style="fill:#ff0000;fill-opacity:0;stroke-width:1"
     id="rect_t"
	 onclick="top.recupPhon(this.id)"
	 class="svgPhonClick"
     width="85.303444"
     height="56.249744"
     x="395.71725"
     y="467.46448" />
  <rect
     style="fill:#ff0000;fill-opacity:0;stroke-width:1"
     id="rect_n"
	 onclick="top.recupPhon(this.id)"
	 class="svgPhonClick"
     width="85.303444"
     height="56.249744"
     x="395.90311"
     y="595.5741" />
  <rect
     y="659.62598"
     x="395.90311"
     height="56.249744"
     width="85.303444"
     id="rect_l"
	 onclick="top.recupPhon(this.id)"
	 class="svgPhonClick"
     style="fill:#ff0000;fill-opacity:0;stroke-width:1" />
  <rect
     style="fill:#ff0000;fill-opacity:0;stroke-width:1"
     id="rect_s"
	 onclick="top.recupPhon(this.id)"
	 class="svgPhonClick"
     width="85.303444"
     height="56.249744"
     x="517.2821"
     y="467.46448" />
  <rect
     style="fill:#ff0000;fill-opacity:0;stroke-width:1"
     id="rect_ts_maj"
	 onclick="top.recupPhon(this.id)"
	 class="svgPhonClick"
     width="85.303444"
     height="56.249744"
     x="638.84698"
     y="467.46448" />
  <rect
     style="fill:#ff0000;fill-opacity:0;stroke-width:1"
     id="rect_s_maj"
	 onclick="top.recupPhon(this.id)"
	 class="svgPhonClick"
     width="85.303444"
     height="56.249744"
     x="760.4118"
     y="467.46448" />
  <rect
     style="fill:#ff0000;fill-opacity:0;stroke-width:1"
     id="rect_k"
	 onclick="top.recupPhon(this.id)"
	 class="svgPhonClick"
     width="85.303444"
     height="56.249744"
     x="881.97662"
     y="467.46448" />
  <rect
     style="fill:#ff0000;fill-opacity:0;stroke-width:1"
     id="rect_n_maj"
	 onclick="top.recupPhon(this.id)"
	 class="svgPhonClick"
     width="85.303444"
     height="56.249744"
     x="882.24207"
     y="595.39471" />
  <rect
     y="467.46448"
     x="1003.5415"
     height="56.249744"
     width="85.303444"
     id="rect_h"
	 onclick="top.recupPhon(this.id)"
	 class="svgPhonClick"
     style="fill:#ff0000;fill-opacity:0;stroke-width:1" />
  <rect
     style="fill:#ff0000;fill-opacity:0;stroke-width:1"
     id="rect_schwi"
	 onclick="top.recupPhon(this.id)"
	 class="svgPhonClick"
     width="62.630508"
     height="32.786438"
     x="89.952538"
     y="741.47797" />
  <rect
     y="741.52899"
     x="893.19482"
     height="32.786438"
     width="62.630508"
     id="rect_schwu"
	 onclick="top.recupPhon(this.id)"
	 class="svgPhonClick"
     style="fill:#ff0000;fill-opacity:0;stroke-width:1" />
  <rect
     style="fill:#ff0000;fill-opacity:0;stroke-width:1"
     id="rect_schwa"
	 onclick="top.recupPhon(this.id)"
	 class="svgPhonClick"
     width="62.630508"
     height="32.786438"
     x="429.58643"
     y="741.47797" />
  <rect
     style="fill:#ff0000;fill-opacity:0;stroke-width:1"
     id="rect_b"
	 onclick="top.recupPhon(this.id)"
	 class="svgPhonClick"
     width="85.303444"
     height="56.249744"
     x="30.990938"
     y="531.48779" />
  <rect
     y="531.48779"
     x="152.55577"
     height="56.249744"
     width="85.303444"
     id="rect_v"
	 onclick="top.recupPhon(this.id)"
	 class="svgPhonClick"
     style="fill:#ff0000;fill-opacity:0;stroke-width:1" />
  <rect
     y="531.48779"
     x="274.12057"
     height="56.249744"
     width="85.303444"
     id="rect_d_maj"
	 onclick="top.recupPhon(this.id)"
	 class="svgPhonClick"
     style="fill:#ff0000;fill-opacity:0;stroke-width:1" />
  <rect
     y="531.48779"
     x="395.68539"
     height="56.249744"
     width="85.303444"
     id="rect_d"
	 onclick="top.recupPhon(this.id)"
	 class="svgPhonClick"
     style="fill:#ff0000;fill-opacity:0;stroke-width:1" />
  <rect
     y="531.48779"
     x="517.25024"
     height="56.249744"
     width="85.303444"
     id="rect_z"
	 onclick="top.recupPhon(this.id)"
	 class="svgPhonClick"
     style="fill:#ff0000;fill-opacity:0;stroke-width:1" />
  <rect
     y="531.48779"
     x="638.81512"
     height="56.249744"
     width="85.303444"
     id="rect_dz_maj"
	 onclick="top.recupPhon(this.id)"
	 class="svgPhonClick"
     style="fill:#ff0000;fill-opacity:0;stroke-width:1" />
  <rect
     y="531.48779"
     x="760.37994"
     height="56.249744"
     width="85.303444"
     id="rect_z_maj"
	 onclick="top.recupPhon(this.id)"
	 class="svgPhonClick"
     style="fill:#ff0000;fill-opacity:0;stroke-width:1" />
  <rect
     y="531.48779"
     x="881.94476"
     height="56.249744"
     width="85.303444"
     id="rect_g"
	 onclick="top.recupPhon(this.id)"
	 class="svgPhonClick"
     style="fill:#ff0000;fill-opacity:0;stroke-width:1" />
</svg>
