<?xml version="1.0" encoding="UTF-8" standalone="no"?>
<!-- Created with Inkscape (http://www.inkscape.org/) -->

<?xml-stylesheet type="text/css" href="../styles/clavier.css"?><svg
   xmlns:dc="http://purl.org/dc/elements/1.1/"
   xmlns:cc="http://creativecommons.org/ns#"
   xmlns:rdf="http://www.w3.org/1999/02/22-rdf-syntax-ns#"
   xmlns:svg="http://www.w3.org/2000/svg"
   xmlns="http://www.w3.org/2000/svg"
   xmlns:xlink="http://www.w3.org/1999/xlink"
   xmlns:sodipodi="http://sodipodi.sourceforge.net/DTD/sodipodi-0.dtd"
   xmlns:inkscape="http://www.inkscape.org/namespaces/inkscape"
   version="1.1"
   id="svg2"
   width="1122.5601"
   height="793.59998"
   viewBox="0 0 1122.5601 793.59998"
   sodipodi:docname="alem-en_click.svg"
   inkscape:version="0.92.3 (2405546, 2018-03-11)">
  <metadata
     id="metadata8">
    <rdf:RDF>
      <cc:Work
         rdf:about="">
        <dc:format>image/svg+xml</dc:format>
        <dc:type
           rdf:resource="http://purl.org/dc/dcmitype/StillImage" />
        <dc:title />
      </cc:Work>
    </rdf:RDF>
  </metadata>
  <defs
     id="defs6" />
  <linearGradient
     id="gradient_ei_maj"
     x1="0"
     x2="0"
     y1="0"
     y2="1">
    <stop
       offset="55%"
       class="phon_e"
       id="stop4" />
    <stop
       offset="80%"
       class="phon_i_maj"
       id="stop6" />
  </linearGradient>
  <linearGradient
     id="gradient_i_majarobase"
     x1="0"
     x2="0"
     y1="0"
     y2="1">
    <stop
       offset="55%"
       class="phon_i_maj"
       id="stop9" />
    <stop
       offset="80%"
       class="phon_arobase"
       id="stop11" />
  </linearGradient>
  <linearGradient
     id="gradient_earobase"
     x1="0"
     x2="0"
     y1="0"
     y2="1">
    <stop
       offset="55%"
       class="phon_e"
       id="stop14" />
    <stop
       offset="80%"
       class="phon_arobase"
       id="stop16" />
  </linearGradient>
  <linearGradient
     id="gradient_au_maj"
     x1="0"
     x2="0"
     y1="0"
     y2="1">
    <stop
       offset="55%"
       class="phon_a"
       id="stop19" />
    <stop
       offset="80%"
       class="phon_u_maj"
       id="stop21" />
  </linearGradient>
  <linearGradient
     id="gradient_arobaseu_maj"
     x1="0"
     x2="0"
     y1="0"
     y2="1">
    <stop
       offset="55%"
       class="phon_arobase"
       id="stop24" />
    <stop
       offset="80%"
       class="phon_u_maj"
       id="stop26" />
  </linearGradient>
  <linearGradient
     id="gradient_u_majarobase"
     x1="0"
     x2="0"
     y1="0"
     y2="1">
    <stop
       offset="55%"
       class="phon_u_maj"
       id="stop29" />
    <stop
       offset="80%"
       class="phon_arobase"
       id="stop31" />
  </linearGradient>
  <linearGradient
     id="gradient_o_maji_maj"
     x1="0"
     x2="0"
     y1="0"
     y2="1">
    <stop
       offset="55%"
       class="phon_o_maj"
       id="stop34" />
    <stop
       offset="80%"
       class="phon_i_maj"
       id="stop36" />
  </linearGradient>
  <linearGradient
     id="gradient_ai_maj"
     x1="0"
     x2="0"
     y1="0"
     y2="1">
    <stop
       offset="55%"
       class="phon_a"
       id="stop39" />
    <stop
       offset="80%"
       class="phon_i_maj"
       id="stop41" />
  </linearGradient>
  <linearGradient
     id="gradient_ts_maj"
     x1="0"
     x2="0"
     y1="0"
     y2="1">
    <stop
       offset="50%"
       class="phon_t"
       id="stop44" />
    <stop
       offset="51%"
       class="phon_s_maj"
       id="stop46" />
  </linearGradient>
  <linearGradient
     id="gradient_dz_maj"
     x1="0"
     x2="0"
     y1="0"
     y2="1">
    <stop
       offset="50%"
       class="phon_d"
       id="stop49" />
    <stop
       offset="51%"
       class="phon_z_maj"
       id="stop51" />
  </linearGradient>
  <sodipodi:namedview
     pagecolor="#ffffff"
     bordercolor="#666666"
     borderopacity="1"
     objecttolerance="10"
     gridtolerance="10"
     guidetolerance="10"
     inkscape:pageopacity="0"
     inkscape:pageshadow="2"
     inkscape:window-width="1366"
     inkscape:window-height="704"
     id="namedview4"
     showgrid="false"
     inkscape:zoom="0.29737904"
     inkscape:cx="636.67624"
     inkscape:cy="455.87433"
     inkscape:window-x="0"
     inkscape:window-y="27"
     inkscape:window-maximized="1"
     inkscape:current-layer="svg2" />
  
  <rect
     style="fill:#000000;fill-opacity:0"
     id="bg"
     width="1122.5601"
     height="793.59998"
     x="0"
     y="0"
     onclick="top.initGraph()" />
  <rect
     style="fill:#ff0000;fill-opacity:0;stroke-width:1"
     id="rect_i_long"
     onclick="top.recupPhon(this.id)"
     class="svgPhonClick"
     width="104.0339"
     height="33.416946"
     x="22.067797"
     y="3.36271" />
  <rect
     style="fill:#ff0000;fill-opacity:0;stroke-width:0.95880294"
     id="rect_i_maj"
     onclick="top.recupPhon(this.id)"
     class="svgPhonClick"
     width="95.770416"
     height="39.828087"
     x="81.184547"
     y="40.878838" />
  <rect
     style="fill:#ff0000;fill-opacity:0;stroke-width:0.9588629"
     id="rect_e"
     onclick="top.recupPhon(this.id)"
     class="svgPhonClick"
     width="95.919029"
     height="46.961475"
     x="64.590965"
     y="86.205574" />
  <rect
     style="fill:#ff0000;fill-opacity:0;stroke-width:1"
     id="rect_3_long"
     onclick="top.recupPhon(this.id)"
     class="svgPhonClick"
     width="104.32581"
     height="61.079643"
     x="262.15204"
     y="139.40877" />
  <rect
     style="fill:#ff0000;fill-opacity:0;stroke-width:0.85638076"
     id="rect_v_maj"
     onclick="top.recupPhon(this.id)"
     class="svgPhonClick"
     width="93.24839"
     height="61.003902"
     x="283.54346"
     y="206.28429" />
  <rect
     style="fill:#ff0000;fill-opacity:0;stroke-width:1.03577471"
     id="rect_a_maj_long"
     onclick="top.recupPhon(this.id)"
     class="svgPhonClick"
     width="104.24406"
     height="80.494919"
     x="413.61356"
     y="253.25423"
     ry="0" />
  <rect
     style="fill:#ff0000;fill-opacity:0;stroke-width:0.98534369"
     id="rect_q_maj"
     onclick="top.recupPhon(this.id)"
     class="svgPhonClick"
     width="81.420082"
     height="80.06839"
     x="506.39999"
     y="218.69092"
     ry="0" />
  <rect
     style="fill:#ff0000;fill-opacity:0;stroke-width:1"
     id="rect_o_maj_long"
     onclick="top.recupPhon(this.id)"
     class="svgPhonClick"
     width="103.40339"
     height="60.318642"
     x="483.59998"
     y="138.50169" />
  <rect
     style="fill:#ff0000;fill-opacity:0;stroke-width:0.77762705"
     id="rect_u_maj"
     onclick="top.recupPhon(this.id)"
     class="svgPhonClick"
     width="58.088528"
     height="42.447739"
     x="462.14478"
     y="39.346088" />
  <rect
     style="fill:#ff0000;fill-opacity:0;stroke-width:1"
     id="rect_u_long"
     onclick="top.recupPhon(this.id)"
     class="svgPhonClick"
     width="71.928337"
     height="32.546085"
     x="498.89139"
     y="4.4688301" />
  <rect
     style="fill:#ff0000;fill-opacity:0;stroke-width:1"
     id="rect_i_majschwa"
     onclick="top.recupPhon(this.id)"
     class="svgPhonClick"
     width="103.87994"
     height="38.341961"
     x="678.71222"
     y="41.919121" />
  <rect
     style="fill:#ff0000;fill-opacity:0;stroke-width:0.82305777"
     id="rect_u_majschwa"
     onclick="top.recupPhon(this.id)"
     class="svgPhonClick"
     width="58.556236"
     height="47.351944"
     x="955.67712"
     y="49.430305"
     ry="0" />
  <rect
     style="fill:#ff0000;fill-opacity:0;stroke-width:0.79643101"
     id="rect_arobaseschwu"
     onclick="top.recupPhon(this.id)"
     class="svgPhonClick"
     width="61.154007"
     height="57.406582"
     x="876.67072"
     y="123.97889" />
  <rect
     style="fill:#ff0000;fill-opacity:0;stroke-width:0.82320845"
     id="rect_o_majschwi"
     onclick="top.recupPhon(this.id)"
     class="svgPhonClick"
     width="70.6987"
     height="61.822704"
     x="1030.9948"
     y="138.51709" />
  <rect
     style="fill:#ff0000;fill-opacity:0;stroke-width:1"
     id="rect_aschwu"
     onclick="top.recupPhon(this.id)"
     class="svgPhonClick"
     width="101.94801"
     height="75.049194"
     x="912.47931"
     y="254.58328" />
  <rect
     y="254.58328"
     x="805.7132"
     height="75.049194"
     width="101.94801"
     id="rect_aschwi"
     onclick="top.recupPhon(this.id)"
     class="svgPhonClick"
     style="fill:#ff0000;fill-opacity:0;stroke-width:1" />
  <rect
     style="fill:#ff0000;fill-opacity:0;stroke-width:1"
     id="rect_eschwi"
     onclick="top.recupPhon(this.id)"
     class="svgPhonClick"
     width="104.24406"
     height="44.976269"
     x="654.67792"
     y="136.39999" />
  <rect
     style="fill:#ff0000;fill-opacity:0;stroke-width:1"
     id="rect_eschwa"
     onclick="top.recupPhon(this.id)"
     class="svgPhonClick"
     width="104.24406"
     height="43.715252"
     x="685.78302"
     y="200.08134" />
  <rect
     style="fill:#ff0000;fill-opacity:0;stroke-width:1.17053378"
     id="rect_r_slash"
     onclick="top.recupPhon(this.id)"
     class="svgPhonClick"
     width="97.308472"
     height="67.674576"
     x="694.82031"
     y="379.77628" />
  <rect
     style="fill:#ff0000;fill-opacity:0;stroke-width:0.76389802"
     id="rect_w"
     onclick="top.recupPhon(this.id)"
     class="svgPhonClick"
     width="57.586445"
     height="48.338978"
     x="896.48132"
     y="356.53558" />
  <rect
     style="fill:#ff0000;fill-opacity:0;stroke-width:0.94601768"
     id="rect_cbrack"
     onclick="top.recupPhon(this.id)"
     class="svgPhonClick"
     width="93.105087"
     height="67.044067"
     x="139.97289"
     y="221.72881" />
  <rect
     style="fill:#ff0000;fill-opacity:0;stroke-width:0.89482737"
     id="rect_j"
     onclick="top.recupPhon(this.id)"
     class="svgPhonClick"
     width="95.391579"
     height="40.276863"
     x="73.571823"
     y="360.63693" />
  <rect
     y="462.11444"
     x="28.050566"
     height="64.572029"
     width="92.436829"
     id="rect_p"
     onclick="top.recupPhon(this.id)"
     class="svgPhonClick"
     style="fill:#ff0000;fill-opacity:0;stroke-width:1.11532438" />
  <rect
     y="591.3042"
     x="28.018692"
     height="64.623062"
     width="92.468704"
     id="rect_m"
     onclick="top.recupPhon(this.id)"
     class="svgPhonClick"
     style="fill:#ff0000;fill-opacity:0;stroke-width:1.11595726" />
  <rect
     style="fill:#ff0000;fill-opacity:0;stroke-width:1.09650099"
     id="rect_f"
     onclick="top.recupPhon(this.id)"
     class="svgPhonClick"
     width="91.608528"
     height="62.97517"
     x="148.8046"
     y="464.10178" />
  <rect
     style="fill:#ff0000;fill-opacity:0;stroke-width:1.10996258"
     id="rect_t_maj"
     onclick="top.recupPhon(this.id)"
     class="svgPhonClick"
     width="92.028862"
     height="64.236183"
     x="270.78973"
     y="463.68143" />
  <rect
     style="fill:#ff0000;fill-opacity:0;stroke-width:1.08385015"
     id="rect_t"
     onclick="top.recupPhon(this.id)"
     class="svgPhonClick"
     width="89.506836"
     height="62.975166"
     x="393.19522"
     y="463.26108" />
  <rect
     style="fill:#ff0000;fill-opacity:0;stroke-width:1.0969497"
     id="rect_n"
     onclick="top.recupPhon(this.id)"
     class="svgPhonClick"
     width="89.506844"
     height="64.506622"
     x="393.19522"
     y="589.83923" />
  <rect
     y="654.34583"
     x="393.19522"
     height="64.892609"
     width="89.506844"
     id="rect_l"
     onclick="top.recupPhon(this.id)"
     class="svgPhonClick"
     style="fill:#ff0000;fill-opacity:0;stroke-width:1.10022664" />
  <rect
     style="fill:#ff0000;fill-opacity:0;stroke-width:1.11519551"
     id="rect_s"
     onclick="top.recupPhon(this.id)"
     class="svgPhonClick"
     width="94.130562"
     height="63.395508"
     x="512.23804"
     y="464.10178" />
  <rect
     style="fill:#ff0000;fill-opacity:0;stroke-width:1.12005615"
     id="rect_ts_maj"
     onclick="top.recupPhon(this.id)"
     class="svgPhonClick"
     width="93.710228"
     height="64.236183"
     x="634.64362"
     y="463.26108" />
  <rect
     style="fill:#ff0000;fill-opacity:0;stroke-width:1.10519087"
     id="rect_s_maj"
     onclick="top.recupPhon(this.id)"
     class="svgPhonClick"
     width="92.449211"
     height="63.395508"
     x="756.20844"
     y="463.68143" />
  <rect
     style="fill:#ff0000;fill-opacity:0;stroke-width:1.07911634"
     id="rect_k"
     onclick="top.recupPhon(this.id)"
     class="svgPhonClick"
     width="89.92717"
     height="62.134491"
     x="879.87494"
     y="464.10178" />
  <rect
     style="fill:#ff0000;fill-opacity:0;stroke-width:1.09799254"
     id="rect_n_maj"
     onclick="top.recupPhon(this.id)"
     class="svgPhonClick"
     width="89.927162"
     height="64.327263"
     x="879.87494"
     y="589.83923" />
  <rect
     y="464.94244"
     x="1001.0195"
     height="62.134491"
     width="90.347511"
     id="rect_h"
     onclick="top.recupPhon(this.id)"
     class="svgPhonClick"
     style="fill:#ff0000;fill-opacity:0;stroke-width:1.08163548" />
  <rect
     style="fill:#ff0000;fill-opacity:0;stroke-width:1.10360706"
     id="rect_schwi"
     onclick="top.recupPhon(this.id)"
     class="svgPhonClick"
     width="62.630508"
     height="39.932198"
     x="89.952538"
     y="737.2746" />
  <rect
     y="736.90527"
     x="893.19482"
     height="41.613556"
     width="62.630508"
     id="rect_schwu"
     onclick="top.recupPhon(this.id)"
     class="svgPhonClick"
     style="fill:#ff0000;fill-opacity:0;stroke-width:1.12660146" />
  <rect
     style="fill:#ff0000;fill-opacity:0;stroke-width:1.11516356"
     id="rect_schwa"
     onclick="top.recupPhon(this.id)"
     class="svgPhonClick"
     width="62.630508"
     height="40.772877"
     x="429.58643"
     y="737.2746" />
  <rect
     style="fill:#ff0000;fill-opacity:0;stroke-width:1.11591148"
     id="rect_b"
     onclick="top.recupPhon(this.id)"
     class="svgPhonClick"
     width="92.468704"
     height="64.617752"
     x="28.018692"
     y="526.68646" />
  <rect
     y="527.07697"
     x="148.8046"
     height="64.023285"
     width="91.608513"
     id="rect_v"
     onclick="top.recupPhon(this.id)"
     class="svgPhonClick"
     style="fill:#ff0000;fill-opacity:0;stroke-width:1.10558808" />
  <rect
     y="527.9176"
     x="270.78973"
     height="63.182648"
     width="92.028877"
     id="rect_d_maj"
     onclick="top.recupPhon(this.id)"
     class="svgPhonClick"
     style="fill:#ff0000;fill-opacity:0;stroke-width:1.10082281" />
  <rect
     y="526.23627"
     x="393.19522"
     height="63.602966"
     width="89.506844"
     id="rect_d"
     onclick="top.recupPhon(this.id)"
     class="svgPhonClick"
     style="fill:#ff0000;fill-opacity:0;stroke-width:1.08923912" />
  <rect
     y="527.49731"
     x="512.23804"
     height="63.602936"
     width="94.130531"
     id="rect_z"
     onclick="top.recupPhon(this.id)"
     class="svgPhonClick"
     style="fill:#ff0000;fill-opacity:0;stroke-width:1.11701822" />
  <rect
     y="527.49725"
     x="634.64362"
     height="63.602997"
     width="93.710182"
     id="rect_dz_maj"
     onclick="top.recupPhon(this.id)"
     class="svgPhonClick"
     style="fill:#ff0000;fill-opacity:0;stroke-width:1.11452198" />
  <rect
     y="527.0769"
     x="756.20844"
     height="64.443687"
     width="92.449196"
     id="rect_z_maj"
     onclick="top.recupPhon(this.id)"
     class="svgPhonClick"
     style="fill:#ff0000;fill-opacity:0;stroke-width:1.11428988" />
  <rect
     y="526.23627"
     x="879.87494"
     height="63.602966"
     width="89.927162"
     id="rect_g"
     onclick="top.recupPhon(this.id)"
     class="svgPhonClick"
     style="fill:#ff0000;fill-opacity:0;stroke-width:1.09179366" />
</svg>
