<?xml version="1.0" encoding="UTF-8" standalone="no"?>
<!-- Created with Inkscape (http://www.inkscape.org/) -->

<?xml-stylesheet type="text/css" href="../styles/phonochromie_alem_v4.css"?><svg
   xmlns:dc="http://purl.org/dc/elements/1.1/"
   xmlns:cc="http://creativecommons.org/ns#"
   xmlns:rdf="http://www.w3.org/1999/02/22-rdf-syntax-ns#"
   xmlns:svg="http://www.w3.org/2000/svg"
   xmlns="http://www.w3.org/2000/svg"
   xmlns:xlink="http://www.w3.org/1999/xlink"
   xmlns:sodipodi="http://sodipodi.sourceforge.net/DTD/sodipodi-0.dtd"
   xmlns:inkscape="http://www.inkscape.org/namespaces/inkscape"
   version="1.1"
   id="svg2"
   width="800"
   height="880"
   viewBox="0 0 1000 1000"
   sodipodi:docname="arabe_alg_Benbouaziz_v2.svg"
   inkscape:version="0.92.5 (2060ec1f9f, 2020-04-08)">
  <metadata
     id="metadata8">
    <rdf:RDF>
      <cc:Work
         rdf:about="">
        <dc:format>image/svg+xml</dc:format>
        <dc:type
           rdf:resource="http://purl.org/dc/dcmitype/StillImage" />
        <dc:title />
      </cc:Work>
    </rdf:RDF>
  </metadata>
  <defs
     id="defs6">
    <inkscape:path-effect
       effect="simplify"
       id="path-effect85"
       is_visible="true"
       steps="1"
       threshold="0.005"
       smooth_angles="360"
       helper_size="0"
       simplify_individual_paths="false"
       simplify_just_coalesce="false"
       simplifyindividualpaths="false"
       simplifyJustCoalesce="false" />
    <inkscape:path-effect
       effect="simplify"
       id="path-effect81"
       is_visible="true"
       steps="1"
       threshold="0.005"
       smooth_angles="360"
       helper_size="0"
       simplify_individual_paths="false"
       simplify_just_coalesce="false"
       simplifyindividualpaths="false"
       simplifyJustCoalesce="false" />
    <linearGradient
       inkscape:collect="always"
       xlink:href="#gradient_ei"
       id="linearGradient5785"
       gradientUnits="userSpaceOnUse"
       x1="13.617746"
       y1="404.4834"
       x2="293.44904"
       y2="60.597469"
       gradientTransform="translate(0,-32.5)" />
    <linearGradient
       inkscape:collect="always"
       xlink:href="#gradient_uo"
       id="linearGradient5793"
       x1="702.57812"
       y1="59.627369"
       x2="983.59149"
       y2="399.37009"
       gradientUnits="userSpaceOnUse"
       gradientTransform="translate(0,-32.5)" />
    <linearGradient
       inkscape:collect="always"
       xlink:href="#gradient_e_majaa_maj"
       id="linearGradient906"
       x1="38.601757"
       y1="659.25763"
       x2="800.46356"
       y2="878.84747"
       gradientUnits="userSpaceOnUse"
       gradientTransform="translate(0,-32.5)" />
    <linearGradient
       inkscape:collect="always"
       xlink:href="#gradient_e_maj_nasa_maj_nas"
       id="linearGradient1034"
       x1="34.883591"
       y1="838.284"
       x2="32.735531"
       y2="987.43933"
       gradientUnits="userSpaceOnUse"
       gradientTransform="translate(2.5,-32.5)" />
    <linearGradient
       inkscape:collect="always"
       xlink:href="#gradient_e_majaa_maj"
       id="linearGradient85"
       gradientUnits="userSpaceOnUse"
       x1="38.601757"
       y1="659.25763"
       x2="800.46356"
       y2="878.84747"
       gradientTransform="translate(0,-32.5)" />
    <linearGradient
       inkscape:collect="always"
       xlink:href="#gradient_ei"
       id="linearGradient87"
       gradientUnits="userSpaceOnUse"
       x1="13.617746"
       y1="404.4834"
       x2="293.44904"
       y2="60.597469"
       gradientTransform="translate(0,-32.5)" />
    <linearGradient
       inkscape:collect="always"
       xlink:href="#gradient_uo"
       id="linearGradient89"
       gradientUnits="userSpaceOnUse"
       x1="702.57812"
       y1="59.627369"
       x2="983.59149"
       y2="399.37009"
       gradientTransform="translate(0,-32.5)" />
  </defs>
  <sodipodi:namedview
     pagecolor="#ffffff"
     bordercolor="#666666"
     borderopacity="1"
     objecttolerance="10"
     gridtolerance="10"
     guidetolerance="10"
     inkscape:pageopacity="0"
     inkscape:pageshadow="2"
     inkscape:window-width="1680"
     inkscape:window-height="1013"
     id="namedview4"
     showgrid="false"
     inkscape:zoom="0.64000001"
     inkscape:cx="389.06252"
     inkscape:cy="519.61968"
     inkscape:window-x="0"
     inkscape:window-y="0"
     inkscape:window-maximized="1"
     inkscape:current-layer="svg2"
     inkscape:snap-others="true"
     inkscape:snap-global="true"
     showguides="true"
     inkscape:guide-bbox="true" />
  <defs
     id="defs26">
    <linearGradient
       id="gradient_e_maj_nasa_maj_nas"
       x1="0"
       x2="0"
       y1="0"
       y2="1">
      <stop
         offset="0.34275854"
         class="phon_e_maj_nas"
         id="stop20" />
      <stop
         offset="0.6671654"
         class="phon_a_maj_nas"
         id="stop22" />
    </linearGradient>
    <linearGradient
       id="gradient_e_majaa_maj"
       x1="0"
       x2="0"
       y1="0"
       y2="1">
      <stop
         offset="0.1"
         class="phon_e_maj"
         id="stop25" />
      <stop
         offset="0.3"
         class="phon_a"
         id="stop255" />
      <stop
         offset="0.6"
         class="phon_a"
         id="stop256" />
      <stop
         offset="0.95"
         class="phon_a_maj"
         id="stop27" />
    </linearGradient>
    <linearGradient
       id="gradient_uo"
       x1="0"
       x2="0"
       y1="0"
       y2="1">
      <stop
         offset="0.39963862"
         class="phon_u"
         id="stop30" />
      <stop
         offset="0.62675029"
         class="phon_o"
         id="stop32" />
    </linearGradient>
    <linearGradient
       id="gradient_ei"
       x1="0"
       x2="0"
       y1="0"
       y2="1">
      <stop
         offset="0.33510739"
         class="phon_e"
         id="stop35" />
      <stop
         offset="0.66861475"
         class="phon_i"
         id="stop37" />
    </linearGradient>
  </defs>
  <style
     type="text/css"
     id="style28">
     svg {
        background-color: black;
    }
   .svgPhonClick:hover {
      cursor: pointer;
      stroke: #ffffff;
      stroke-width: 40px;
   }
  </style>
  <circle
     r="470"
     cy="467.5"
     cx="500"
     id="circle3898"
     style="fill:#cccccc;fill-opacity:0;stroke:#349250;stroke-width:60;stroke-linejoin:round;stroke-miterlimit:4;stroke-dasharray:none;stroke-dashoffset:0;stroke-opacity:0" />
  <path
     style="fill:none;fill-opacity:1;stroke:url(#linearGradient5785);stroke-width:50;stroke-linejoin:round;stroke-miterlimit:4;stroke-dasharray:none;stroke-dashoffset:0;stroke-opacity:1"
     id="circle3900"
     sodipodi:type="arc"
     sodipodi:cx="500"
     sodipodi:cy="467.5"
     sodipodi:rx="470"
     sodipodi:ry="470"
     sodipodi:start="3.3632854"
     sodipodi:end="4.2272908"
     sodipodi:open="true"
     class="svgPhonClick"
     d="M 41.502477,364.15581 A 470,470 0 0 1 280.84125,51.724289" />
  <path
     id="circle3902"
     style="fill:#cccccc;fill-opacity:0;stroke:url(#linearGradient5793);stroke-width:50;stroke-linejoin:round;stroke-miterlimit:4;stroke-dasharray:none;stroke-dashoffset:0;stroke-opacity:1"
     sodipodi:type="arc"
     sodipodi:cx="500"
     sodipodi:cy="467.5"
     sodipodi:rx="470"
     sodipodi:ry="470"
     sodipodi:start="5.2014771"
     sodipodi:end="6.061232"
     sodipodi:open="true"
     class="svgPhonClick"
     d="M 720.81592,52.602026 A 470,470 0 0 1 958.47058,364.03635" />
  <path
     style="fill:none;fill-opacity:0;stroke:url(#linearGradient906);stroke-width:50;stroke-linejoin:round;stroke-miterlimit:4;stroke-dasharray:none;stroke-dashoffset:0;stroke-opacity:1"
     id="circle3904"
     sodipodi:type="arc"
     sodipodi:cx="500"
     sodipodi:cy="467.5"
     sodipodi:rx="470"
     sodipodi:ry="470"
     sodipodi:start="0.91856505"
     sodipodi:end="2.7865215"
     sodipodi:open="true"
     class="svgPhonClick"
     d="M 785.27176,841.0238 A 470,470 0 0 1 369.32395,918.96846 470,470 0 0 1 59.317776,630.89883" />
  <rect
     style="stroke-width:1.12635553"
     y="-16.373783"
     x="470"
     height="60"
     width="60"
     id="rect_arobase"
     class="svgPhonClick phon_arobase"
     onclick="top.recupPhon(this.id)"
     ry="50" />
  <rect
     style="fill:url(#linearGradient1034);fill-opacity:1;stroke:none;stroke-width:1.68054998"
     y="803.98059"
     x="9.7622299"
     height="150"
     width="60"
     id="rect_e_maj_nasa_maj_nas"
     class="svgPhonClick phon_e_maj_nasa_maj_nas"
     ry="30" />
  <rect
     y="182.5"
     x="219.5159"
     height="67.581421"
     width="67.581421"
     id="rect_j"
     class="svgPhonClick phon_j"
     onclick="top.recupPhon(this.id)"
     ry="2.8158915"
     style="stroke-width:1.12635553" />
  <script
     id="script89">
      
        document.getElementById('circle3904').addEventListener('click', function (e) {
            console.log('e.offsetX',e.offsetX);
            if (e.offsetX &lt; 100)  {
                top.recupPhon('rect_e_maj');
            } else if (e.offsetX &lt; 350)  {
                top.recupPhon('rect_a');
            } else {
                top.recupPhon('rect_a_maj');
            };
        });

        document.getElementById('circle3900').addEventListener('click', function (e) {
            if (e.offsetY &lt; 170)  {
                top.recupPhon('rect_i');
            } else {
                top.recupPhon('rect_e');
            };
        });

        document.getElementById('circle3902').addEventListener('click', function (e) {
            if (e.offsetY &lt; 170)  {
                top.recupPhon('rect_u');
            } else {
                top.recupPhon('rect_o');
            };
        });

    </script>
  <rect
     ry="2.8158915"
     onclick="top.recupPhon(this.id)"
     class="svgPhonClick phon_w"
     id="rect_w"
     width="67.581421"
     height="67.581421"
     x="671.55591"
     y="182.5"
     style="stroke-width:1.12635553" />
  <rect
     y="537.35065"
     x="781.25043"
     height="67.581421"
     width="67.581421"
     id="rect_h"
     class="svgPhonClick phon_h"
     onclick="top.recupPhon(this.id)"
     ry="2.8158915"
     style="stroke-width:1.12635553" />
  <rect
     ry="2.8158915"
     onclick="top.recupPhon(this.id)"
     class="svgPhonClick phon_glottstop"
     id="rect_glottstop"
     width="67.581421"
     height="67.581421"
     x="781.25043"
     y="283.92133"
     style="stroke-width:1.12635553" />
  <rect
     y="621.82812"
     x="696.77393"
     height="67.581421"
     width="67.581421"
     id="rect_int_slash"
     class="svgPhonClick phon_int_slash"
     onclick="top.recupPhon(this.id)"
     ry="2.8158915"
     style="stroke-width:1.12635553" />
  <rect
     ry="2.8158915"
     onclick="top.recupPhon(this.id)"
     class="svgPhonClick phon_x_maj_slash"
     id="rect_x_maj_slash"
     width="67.581421"
     height="67.581421"
     x="696.77393"
     y="537.35065"
     style="stroke-width:1.12635553" />
  <rect
     y="283.92133"
     x="696.77393"
     height="67.581421"
     width="67.581421"
     id="rect_q"
     class="svgPhonClick phon_q"
     onclick="top.recupPhon(this.id)"
     ry="2.8158915"
     style="stroke-width:1.12635553" />
  <rect
     ry="2.8158915"
     onclick="top.recupPhon(this.id)"
     class="svgPhonClick phon_g_maj"
     id="rect_g_maj"
     width="67.581421"
     height="67.581421"
     x="612.29663"
     y="621.82812"
     style="stroke-width:1.12635553" />
  <rect
     y="537.35065"
     x="612.29663"
     height="67.581421"
     width="67.581421"
     id="rect_x"
     class="svgPhonClick phon_x"
     onclick="top.recupPhon(this.id)"
     ry="2.8158915"
     style="stroke-width:1.12635553" />
  <rect
     ry="2.8158915"
     onclick="top.recupPhon(this.id)"
     class="svgPhonClick phon_n_maj"
     id="rect_n_maj"
     width="67.581421"
     height="67.581421"
     x="612.29663"
     y="452.87463"
     style="stroke-width:1.12635553" />
  <rect
     y="368.39816"
     x="612.29663"
     height="67.581421"
     width="67.581421"
     id="rect_g"
     class="svgPhonClick phon_g"
     onclick="top.recupPhon(this.id)"
     ry="2.8158915"
     style="stroke-width:1.12635553" />
  <rect
     ry="2.8158915"
     onclick="top.recupPhon(this.id)"
     class="svgPhonClick phon_k"
     id="rect_k"
     width="67.581421"
     height="67.581421"
     x="612.29663"
     y="283.92133"
     style="stroke-width:1.12635553" />
  <rect
     y="621.82812"
     x="489.41956"
     height="67.581421"
     width="67.581421"
     id="rect_z_maj"
     class="svgPhonClick phon_z_maj"
     onclick="top.recupPhon(this.id)"
     ry="2.8158915"
     style="stroke-width:1.12635553" />
  <rect
     ry="2.8158915"
     onclick="top.recupPhon(this.id)"
     class="svgPhonClick phon_s_maj"
     id="rect_s_maj"
     width="67.581421"
     height="67.581421"
     x="489.41956"
     y="537.35065"
     style="stroke-width:1.12635553" />
  <rect
     y="790.78198"
     x="404.94226"
     height="67.581421"
     width="67.581421"
     id="rect_r"
     class="svgPhonClick phon_r"
     onclick="top.recupPhon(this.id)"
     ry="2.8158915"
     style="stroke-width:1.12635553" />
  <rect
     ry="2.8158915"
     onclick="top.recupPhon(this.id)"
     class="svgPhonClick phon_l"
     id="rect_l"
     width="67.581421"
     height="67.581421"
     x="404.94226"
     y="706.30548"
     style="stroke-width:1.12635553" />
  <rect
     y="621.82812"
     x="404.94226"
     height="67.581421"
     width="67.581421"
     id="rect_z"
     class="svgPhonClick phon_z"
     onclick="top.recupPhon(this.id)"
     ry="2.8158915"
     style="stroke-width:1.12635553" />
  <rect
     ry="2.8158915"
     onclick="top.recupPhon(this.id)"
     class="svgPhonClick phon_s"
     id="rect_s"
     width="67.581421"
     height="67.581421"
     x="404.94226"
     y="537.35065"
     style="stroke-width:1.12635553" />
  <rect
     y="452.87463"
     x="404.94226"
     height="67.581421"
     width="67.581421"
     id="rect_n"
     class="svgPhonClick phon_n"
     onclick="top.recupPhon(this.id)"
     ry="2.8158915"
     style="stroke-width:1.12635553" />
  <rect
     ry="2.8158915"
     onclick="top.recupPhon(this.id)"
     class="svgPhonClick phon_d"
     id="rect_d"
     width="67.581421"
     height="67.581421"
     x="404.94226"
     y="368.39816"
     style="stroke-width:1.12635553" />
  <rect
     y="283.92133"
     x="404.94226"
     height="67.581421"
     width="67.581421"
     id="rect_t"
     class="svgPhonClick phon_t"
     onclick="top.recupPhon(this.id)"
     ry="2.8158915"
     style="stroke-width:1.12635553" />
  <rect
     ry="2.8158915"
     onclick="top.recupPhon(this.id)"
     class="svgPhonClick phon_d_maj"
     id="rect_d_maj"
     width="67.581421"
     height="67.581421"
     x="320.46625"
     y="621.82812"
     style="stroke-width:1.12635553" />
  <rect
     y="537.35065"
     x="320.46625"
     height="67.581421"
     width="67.581421"
     id="rect_t_maj"
     class="svgPhonClick phon_t_maj"
     onclick="top.recupPhon(this.id)"
     ry="2.8158915"
     style="stroke-width:1.12635553" />
  <rect
     ry="2.8158915"
     onclick="top.recupPhon(this.id)"
     class="svgPhonClick phon_v"
     id="rect_v"
     width="67.581421"
     height="67.581421"
     x="235.98933"
     y="621.82812"
     style="stroke-width:1.12635553" />
  <rect
     y="537.35065"
     x="235.98933"
     height="67.581421"
     width="67.581421"
     id="rect_f"
     class="svgPhonClick phon_f"
     onclick="top.recupPhon(this.id)"
     ry="2.8158915"
     style="stroke-width:1.12635553" />
  <rect
     ry="2.8158915"
     onclick="top.recupPhon(this.id)"
     class="svgPhonClick phon_m"
     id="rect_m"
     width="67.581421"
     height="67.581421"
     x="151.51242"
     y="452.87463"
     style="stroke-width:1.12635553" />
  <rect
     y="368.39816"
     x="151.51242"
     height="67.581421"
     width="67.581421"
     id="rect_b"
     class="svgPhonClick phon_b"
     onclick="top.recupPhon(this.id)"
     ry="2.8158915"
     style="stroke-width:1.12635553" />
  <rect
     ry="2.8158915"
     onclick="top.recupPhon(this.id)"
     class="svgPhonClick phon_p"
     id="rect_p"
     width="67.581421"
     height="67.581421"
     x="151.51242"
     y="283.92133"
     style="stroke-width:1.12635553" />
  <path
     sodipodi:type="star"
     style="stroke-width:1.12635553"
     id="rect_t_emph"
     sodipodi:sides="3"
     sodipodi:cx="434.71899"
     sodipodi:cy="366.75101"
     sodipodi:r1="34.558559"
     sodipodi:r2="15.685435"
     sodipodi:arg1="0.52267882"
     sodipodi:arg2="0.52267882"
     inkscape:flatsided="true"
     inkscape:rounded="0"
     inkscape:randomized="0"
     d="m 464.66347,384.00275 -59.85716,0.0551 29.88089,-51.86535 z"
     transform="matrix(1.3692542,0,0,0.78711488,-156.6065,52.802774)"
     class="svgPhonClick phon_t_emph"
     onclick="top.recupPhon(this.id)" />
  <path
     transform="matrix(1.3692542,0,0,0.78711488,-240.92868,390.6545)"
     d="m 464.66347,384.00275 -59.85716,0.0551 29.88089,-51.86535 z"
     inkscape:randomized="0"
     inkscape:rounded="0"
     inkscape:flatsided="true"
     sodipodi:arg2="0.52267882"
     sodipodi:arg1="0.52267882"
     sodipodi:r2="15.685435"
     sodipodi:r1="34.558559"
     sodipodi:cy="366.75101"
     sodipodi:cx="434.71899"
     sodipodi:sides="3"
     id="rect_d_maj_emph"
     style="stroke-width:1.12635553"
     sodipodi:type="star"
     class="svgPhonClick phon_d_maj_emph"
     onclick="top.recupPhon(this.id)" />
  <path
     sodipodi:type="star"
     style="stroke-width:1.12635553"
     id="rect_r_emph"
     sodipodi:sides="3"
     sodipodi:cx="434.71899"
     sodipodi:cy="366.75101"
     sodipodi:r1="34.558559"
     sodipodi:r2="15.685435"
     sodipodi:arg1="0.52267882"
     sodipodi:arg2="0.52267882"
     inkscape:flatsided="true"
     inkscape:rounded="0"
     inkscape:randomized="0"
     d="m 464.66347,384.00275 -59.85716,0.0551 29.88089,-51.86535 z"
     transform="matrix(1.3692542,0,0,0.78711488,-156.6065,559.64418)"
     class="svgPhonClick phon_r_emph"
     onclick="top.recupPhon(this.id)" />
  <path
     transform="matrix(1.3692542,0,0,0.78711488,-156.6065,475.16768)"
     d="m 464.66347,384.00275 -59.85716,0.0551 29.88089,-51.86535 z"
     inkscape:randomized="0"
     inkscape:rounded="0"
     inkscape:flatsided="true"
     sodipodi:arg2="0.52267882"
     sodipodi:arg1="0.52267882"
     sodipodi:r2="15.685435"
     sodipodi:r1="34.558559"
     sodipodi:cy="366.75101"
     sodipodi:cx="434.71899"
     sodipodi:sides="3"
     id="rect_l_emph"
     style="stroke-width:1.12635553"
     sodipodi:type="star"
     class="svgPhonClick phon_l_emph"
     onclick="top.recupPhon(this.id)" />
  <path
     sodipodi:type="star"
     style="stroke-width:1.12635553"
     id="rect_z_emph"
     sodipodi:sides="3"
     sodipodi:cx="434.71899"
     sodipodi:cy="366.75101"
     sodipodi:r1="34.558559"
     sodipodi:r2="15.685435"
     sodipodi:arg1="0.52267882"
     sodipodi:arg2="0.52267882"
     inkscape:flatsided="true"
     inkscape:rounded="0"
     inkscape:randomized="0"
     d="m 464.66347,384.00275 -59.85716,0.0551 29.88089,-51.86535 z"
     transform="matrix(1.3692542,0,0,0.78711488,-156.6065,390.69033)"
     class="svgPhonClick phon_z_emph"
     onclick="top.recupPhon(this.id)" />
  <path
     transform="matrix(1.3692542,0,0,0.78711488,-156.45267,306.17703)"
     d="m 464.66347,384.00275 -59.85716,0.0551 29.88089,-51.86535 z"
     inkscape:randomized="0"
     inkscape:rounded="0"
     inkscape:flatsided="true"
     sodipodi:arg2="0.52267882"
     sodipodi:arg1="0.52267882"
     sodipodi:r2="15.685435"
     sodipodi:r1="34.558559"
     sodipodi:cy="366.75101"
     sodipodi:cx="434.71899"
     sodipodi:sides="3"
     id="rect_s_emph"
     style="stroke-width:1.12635553"
     sodipodi:type="star"
     class="svgPhonClick phon_s_emph"
     onclick="top.recupPhon(this.id)" />
  <path
     sodipodi:type="star"
     style="stroke-width:1.12635553"
     id="rect_n_emph"
     sodipodi:sides="3"
     sodipodi:cx="434.71899"
     sodipodi:cy="366.75101"
     sodipodi:r1="34.558559"
     sodipodi:r2="15.685435"
     sodipodi:arg1="0.52267882"
     sodipodi:arg2="0.52267882"
     inkscape:flatsided="true"
     inkscape:rounded="0"
     inkscape:randomized="0"
     d="m 464.66347,384.00275 -59.85716,0.0551 29.88089,-51.86535 z"
     transform="matrix(1.3692542,0,0,0.78711488,-156.45267,221.70101)"
     class="svgPhonClick phon_n_emph"
     onclick="top.recupPhon(this.id)" />
  <path
     transform="matrix(1.3692542,0,0,0.78711488,-156.45267,137.22454)"
     d="m 464.66347,384.00275 -59.85716,0.0551 29.88089,-51.86535 z"
     inkscape:randomized="0"
     inkscape:rounded="0"
     inkscape:flatsided="true"
     sodipodi:arg2="0.52267882"
     sodipodi:arg1="0.52267882"
     sodipodi:r2="15.685435"
     sodipodi:r1="34.558559"
     sodipodi:cy="366.75101"
     sodipodi:cx="434.71899"
     sodipodi:sides="3"
     id="rect_d_emph"
     style="stroke-width:1.12635553"
     sodipodi:type="star"
     class="svgPhonClick phon_d_emph"
     onclick="top.recupPhon(this.id)" />
  <path
     sodipodi:type="star"
     style="stroke-width:1.12635553"
     id="rect_m_emph"
     sodipodi:sides="3"
     sodipodi:cx="434.71899"
     sodipodi:cy="366.75101"
     sodipodi:r1="34.558559"
     sodipodi:r2="15.685435"
     sodipodi:arg1="0.52267882"
     sodipodi:arg2="0.52267882"
     inkscape:flatsided="true"
     inkscape:rounded="0"
     inkscape:randomized="0"
     d="m 464.66347,384.00275 -59.85716,0.0551 29.88089,-51.86535 z"
     transform="matrix(1.3692541,0,0,0.78711488,-409.8825,221.70101)"
     class="svgPhonClick phon_m_emph"
     onclick="top.recupPhon(this.id)" />
  <path
     transform="matrix(1.3692541,0,0,0.78711488,-409.8825,137.22454)"
     d="m 464.66347,384.00275 -59.85716,0.0551 29.88089,-51.86535 z"
     inkscape:randomized="0"
     inkscape:rounded="0"
     inkscape:flatsided="true"
     sodipodi:arg2="0.52267882"
     sodipodi:arg1="0.52267882"
     sodipodi:r2="15.685435"
     sodipodi:r1="34.558559"
     sodipodi:cy="366.75101"
     sodipodi:cx="434.71899"
     sodipodi:sides="3"
     id="rect_b_emph"
     style="stroke-width:1.12635553"
     sodipodi:type="star"
     class="svgPhonClick phon_b_emph"
     onclick="top.recupPhon(this.id)" />
  <rect
     ry="16.499994"
     onclick="top.recupPhon(this.id)"
     class="svgPhonClick phon_e_maj_nas"
     id="rect_e_maj_nas"
     width="66.297546"
     height="82"
     x="4.1134572"
     y="796.33185"
     style="fill-opacity:0;stroke-width:0" />
  <rect
     style="fill-opacity:0;stroke-width:0"
     y="878.33185"
     x="4.1134572"
     height="82"
     width="66.297546"
     id="rect_a_maj_nas"
     class="svgPhonClick phon_a_maj_nas"
     onclick="top.recupPhon(this.id)"
     ry="16.21048" />
  <path
     d="M 753.7034,-9.191289 A 540,540 0 0 1 890.60004,94.630571"
     class="svgPhonClick"
     sodipodi:open="true"
     sodipodi:end="5.5210067"
     sodipodi:start="5.2014771"
     sodipodi:ry="540"
     sodipodi:rx="540"
     sodipodi:cy="467.5"
     sodipodi:cx="500"
     sodipodi:type="arc"
     style="fill:#cccccc;fill-opacity:0;stroke:url(#linearGradient89);stroke-width:60;stroke-linejoin:round;stroke-miterlimit:4;stroke-dasharray:none;stroke-dashoffset:0;stroke-opacity:1"
     id="rect_u_long"
     onclick="top.recupPhon(this.id)" />
  <path
     d="M 110.94674,93.016944 A 540,540 0 0 1 248.20058,-10.199753"
     class="svgPhonClick"
     sodipodi:open="true"
     sodipodi:end="4.2272908"
     sodipodi:start="3.9079106"
     sodipodi:ry="540"
     sodipodi:rx="540"
     sodipodi:cy="467.5"
     sodipodi:cx="500"
     sodipodi:type="arc"
     id="rect_i_long"
     style="fill:none;fill-opacity:1;stroke:url(#linearGradient87);stroke-width:60;stroke-linejoin:round;stroke-miterlimit:4;stroke-dasharray:none;stroke-dashoffset:0;stroke-opacity:1"
     onclick="top.recupPhon(this.id)" />
  <path
     d="M 428.12262,1002.695 A 540,540 0 0 1 262.78578,952.60763"
     class="svgPhonClick"
     sodipodi:open="true"
     sodipodi:end="2.0255996"
     sodipodi:start="1.7042988"
     sodipodi:ry="540"
     sodipodi:rx="540"
     sodipodi:cy="467.5"
     sodipodi:cx="500"
     sodipodi:type="arc"
     id="rect_a_long"
     style="fill:none;fill-opacity:0;stroke:url(#linearGradient85);stroke-width:60;stroke-linejoin:round;stroke-miterlimit:4;stroke-dasharray:none;stroke-dashoffset:0;stroke-opacity:1"
     onclick="top.recupPhon(this.id)" />
</svg>
